Test Custom Universe
ACC,Atlantic,Coastal,,,,
Big Ten,East,West,,,,
Big 12,North,South,,,,
Pac-12,North,South,,,,
SEC,East,West,,,,
Big East,North,South,,,,
#ACC,,,,,,
TEAM,ACC,Atlantic,Clemson,CLEM,87,UMD
TEAM,ACC,Coastal,Duke,DUKE,50,WAKE
TEAM,ACC,Atlantic,Louisville,LOU,62,MRSH
TEAM,ACC,Coastal,Maryland,UMD,53,CLEM
TEAM,ACC,Coastal,North Carolina,UNC,55,NCST
TEAM,ACC,Atlantic,NC State,NCST,60,UNC
TEAM,ACC,Atlantic,South Carolina,SCAR,62,UVA
TEAM,ACC,Atlantic,Wake Forest,WAKE,50,DUKE
TEAM,ACC,Coastal,Virginia,UVA,62,SCAR
TEAM,ACC,Atlantic,UCF,UCF,65,NAVY
TEAM,ACC,Coastal,Navy,NAVY,42,UCF
TEAM,ACC,Coastal,Marshall,MRSH,50,LOU
TEAM,ACC,Atlantic,Liberty,LIB,45,JMU
TEAM,ACC,Coastal,James Madison,JMU,45,LIB
#Big Ten,,,,,,
TEAM,Big Ten,East,Illinois,ILL,50,NW
TEAM,Big Ten,East,Indiana,IND,50,MIZZ
TEAM,Big Ten,West,Iowa,IOWA,67,PUR
TEAM,Big Ten,East,Michigan,MICH,75,WIS
TEAM,Big Ten,East,Michigan State,MSU,65,MINN
TEAM,Big Ten,West,Minnesota,MINN,63,MSU
TEAM,Big Ten,West,Missouri,MIZZ,55,IND
TEAM,Big Ten,West,Nebraska,NEB,65,OSU
TEAM,Big Ten,West,Northwestern,NW,66,ILL
TEAM,Big Ten,East,Ohio State,OSU,85,NEB
TEAM,Big Ten,East,Purdue,PUR,55,IOWA
TEAM,Big Ten,West,Wisconsin,WIS,75,MICH
TEAM,Big Ten,East,Cincinnati,CIN,60,ND
TEAM,Big Ten,West,Notre Dame,ND,80,CIN
#Big 12,,,,,,
TEAM,Big 12,North,Arkansas,ARK,50,HOU
TEAM,Big 12,South,Houston,HOU,50,ARK
TEAM,Big 12,North,Iowa State,ISU,65,SMU
TEAM,Big 12,North,Kansas,KAN,47,BAY
TEAM,Big 12,North,Kansas State,KSU,58,TCU
TEAM,Big 12,North,Oklahoma,OU,82,TEX
TEAM,Big 12,North,Oklahoma State,OKST,71,TAMU
TEAM,Big 12,South,Baylor,BAY,52,KAN
TEAM,Big 12,South,SMU,SMU,50,ISU
TEAM,Big 12,South,TCU,TCU,67,KSU
TEAM,Big 12,South,Texas,TEX,75,OU
TEAM,Big 12,South,Texas A&M,TAMU,70,OKST
TEAM,Big 12,South,Rice,RICE,40,TLSA
TEAM,Big 12,North,Tulsa,TLSA,40,RICE
#Pac-12,,,,,,
TEAM,Pac-12,North,California,CAL,65,UCLA
TEAM,Pac-12,South,Colorado,COL,55,ORST
TEAM,Pac-12,North,Oregon,ORE,75,ASU
TEAM,Pac-12,North,Oregon State,ORST,50,COL
TEAM,Pac-12,North,Stanford,STAN,70,USC
TEAM,Pac-12,South,UCLA,UCLA,57,CAL
TEAM,Pac-12,South,USC,USC,70,STAN
TEAM,Pac-12,North,Washington,WASH,75,UTAH
TEAM,Pac-12,North,Washington State,WSU,60,ARIZ
TEAM,Pac-12,South,Utah,UTAH,70,WASH
TEAM,Pac-12,South,Arizona,ARIZ,57,WSU
TEAM,Pac-12,South,Arizona State,ASU,60,ORE
TEAM,Pac-12,South,Hawaii,HAW,50,IDHO
TEAM,Pac-12,North,Idaho,IDHO,35,HAW
#SEC,,,,,,
TEAM,SEC,West,Alabama,BAMA,90,TENN
TEAM,SEC,West,Auburn,AUB,75,UGA
TEAM,SEC,East,Florida,FLA,77,LSU
TEAM,SEC,East,Georgia,UGA,85,AUB
TEAM,SEC,East,Georgia Tech,GT,52,TULN
TEAM,SEC,East,Kentucky,UK,65,MSST
TEAM,SEC,West,LSU,LSU,80,FLA
TEAM,SEC,West,Ole Miss,MISS,50,VAN
TEAM,SEC,West,Mississippi State,MSST,73,UK
TEAM,SEC,East,Tennessee,UT,65,BAMA
TEAM,SEC,West,Tulane,TULN,42,GT
TEAM,SEC,East,Vanderbilt,VAN,50,MISS
TEAM,SEC,East,South Florida,USF,55,MEM
TEAM,SEC,West,Memphis,MEM,60,USF
#Big East,,,,,,
TEAM,Big East,North,Boston College,BC,57,FSU
TEAM,Big East,South,Florida State,FSU,65,BC
TEAM,Big East,South,Miami,MIA,70,OHIO
TEAM,Big East,North,Penn State,PSU,79,PITT
TEAM,Big East,South,Pittsburgh,PITT,62,PSU
TEAM,Big East,North,Rutgers,RUT,50,TEM
TEAM,Big East,North,Syracuse,SYR,55,VT
TEAM,Big East,North,UConn,CONN,35,WVU
TEAM,Big East,South,Virginia Tech,VT,70,SYR
TEAM,Big East,South,West Virginia,WVU,68,CONN
TEAM,Big East,South,Temple,TEM,43,RUT
TEAM,Big East,North,UMass,MASS,35,VILL
TEAM,Big East,South,Villanova,VILL,35,MASS
TEAM,Big East,North,Ohio,OHIO,40,MIA